{
  "name": "dnd5e-fr-TaleScape",
  "title": "Traduction de DnD5 pour TaleScape",
  "description": "Module de traduction du système Système DnD5 en Français, basé sur Babele et créé pour la campagne TaleScape.",
  "author": "Stelarius",
  "authors": [],
  "url": "https://gitlab.com/Stelarius1/dnd5e-fr-talescape",
  "flags": {},
  "version": "0.0.21",
  "minimumCoreVersion": "9",
  "compatibleCoreVersion": "9",
  "systems": [
    "dnd5e"
  ],
  "scripts": [],
  "esmodules": [
    "babele-register.js"
  ],
  "styles": [],
  "languages": [
    {
      "lang": "fr",
      "name": "Français",
      "path": "fr.json"
    }
  ],
	"packs": [{
		"name": "items",
		"label": "Items",
		"system": "dnd5e",
		"path": "./packs/items.db",
		"entity": "Item"
	}, {
		"name": "spells",
		"label": "Spells",
		"system": "dnd5e",
		"path": "./packs/spells.db",
		"entity": "Item"
	}
  ],
  "dependencies": [
    {
      "name": "babele",
      "type": "module"
    },
    {
      "name": "lib-wrapper"
    },
    {
      "name": "dnd5e",
      "type": "system"
    }
  ],
  "socket": false,
  "manifest": "https://gitlab.com/Stelarius1/dnd5e-fr-talescape/-/raw/main/module.json",
  "download": "https://gitlab.com/Stelarius1/dnd5e-fr-talescape/-/archive/main/dnd5e-fr-talescape-main.zip",
  "protected": false,
  "coreTranslation": false
}